Análisis
…
Para poder crear tres modelos de regresión múltiple para cada tipo de
material, debemos filtrar los datos originales para crear tres
dataframes que representen los datos obtenidos al usar cierto tipo de
material.

tipo1 <- filter(muestreo, I==1)
tipo2 <- filter(muestreo, I==2)
tipo3 <- filter(muestreo, I==3)

Dataframe con tipo de material 1

tipo1

## # A tibble: 42 x 10
##        A     B     C     D     E     F     G     H     I     Y
##    <dbl> <dbl> <dbl> <dbl> <dbl> <dbl> <dbl> <dbl> <dbl> <dbl>
##  1    71   228   208   197   115   180 5.36    125     1  29.3
##  2    24   230   194   204   117   120 2.20     45     1  41.0
##  3    68   223   250   206    83   175 2.87     77     1  15.7
##  4    20   253   199   204   126   122 1.67     54     1  42.0
##  5    68   198   245   242   115   113 3.60    104     1  34.9
##  6    18   203   200   220    80   173 0.304   111     1  50.0
##  7    17   230   242   197   114   151 1.10     62     1  32.9
##  8    24   226   244   244   124   186 1.57     89     1  26.4
##  9    23   243   191   254    77   116 0.437   101     1  59.9
## 10    67   256   204   210    79   177 2.41     84     1  26.2
## # ... with 32 more rows
…
Dataframe con tipo de material 3

tipo3

## # A tibble: 46 x 10
##        A     B     C     D     E     F     G     H     I     Y
##    <dbl> <dbl> <dbl> <dbl> <dbl> <dbl> <dbl> <dbl> <dbl> <dbl>
##  1    22   219   238   231    84   143 0.613   110     3  45.9
##  2    22   246   252   238   116   121 1.64     56     3  39.8
##  3    67   233   248   248   119   171 4.51    110     3  21.8
##  4    23   246   229   211    78   169 0.647    50     3  35.2
##  5    23   234   190   206   125   186 2.48     74     3  36.7
##  6    20   241   243   202   120   121 1.63     67     3  27.9
##  7    19   225   230   243   120   175 1.79     63     3  23.9
##  8    73   251   207   261   117   119 5.43     80     3  46.8
##  9    21   233   198   203    77   112 0.558    87     3  52.8
## 10    19   227   242   218    83   118 0.642   100     3  43.1
## # ... with 36 more rows
…
